{
  "name": "LCS_Neom_CustomPickList",
  "label": "Custom Pick List by Arslan",
  "description": "Custom Pick List by Arslan",
  "organization": "LCS",
  "version": "0.0.1",
  "library": "Neom",
  "allowedApplications": [],
  "componentKey": "LCS_Neom_CustomPickList",
  "type": "Field",
  "subtype": "Picklist",
  "icon": "images/pz-dropdown-active.svg",
  "properties": [
    {
      "name": "label",
      "label": "Field label",
      "format": "TEXT",
      "required": true
    },
    {
      "name": "readOnly",
      "label": "Edit mode",
      "format": "READONLY"
    },
    {
      "label": "Input settings",
      "format": "GROUP",
      "visibility": "(!readOnly = true)",
      "properties": [
        {
          "name": "placeholder",
          "label": "Placeholder",
          "format": "TEXT"
        },
        {
          "name": "helperText",
          "label": "Helper text",
          "format": "TEXT"
        }
      ]
    },
    {
      "label": "Conditions",
      "format": "GROUP",
      "properties": [
        {
          "name": "required",
          "label": "Required",
          "format": "REQUIRED",
          "visibility": "(!readOnly = true)"
        },
        {
          "name": "disabled",
          "label": "Disabled",
          "format": "DISABLED",
          "visibility": "(!readOnly = true)"
        },
        {
          "name": "visibility",
          "label": "Visibility",
          "format": "VISIBILITY"
        }
      ]
    },
    {
      "label": "Advanced",
      "format": "GROUP",
      "collapsible": true,
      "properties": [
        {
          "name": "testId",
          "label": "Test ID",
          "format": "TEXT",
          "ignorePattern": "[^-_\\p{N}\\p{L}]",
          "includeAnnotations": false
        }
      ]
    }
  ],
  "defaultConfig": {
    "label": "@L $this.label",
    "placeholder": "@L Select...",
    "listType": "associated",
    "datasource": "@ASSOCIATED .$this.name"
  }
}
